lab1/codes/CPU.vcd
$date
	Fri Dec  2 12:35:30 2022
$end
$version
	Icarus Verilog
$end
$timescale
	1s
$end
$scope module TestBench $end
$var reg 1 ! Clk $end
$var reg 1 " Reset $end
$var reg 1 # Start $end
$var integer 32 $ counter [31:0] $end
$var integer 32 % flush [31:0] $end
$var integer 32 & i [31:0] $end
$var integer 32 ' outfile [31:0] $end
$var integer 32 ( stall [31:0] $end
$scope module CPU $end
$var wire 1 ) Flush $end
$var wire 1 ! clk_i $end
$var wire 1 " rst_i $end
$var wire 1 # start_i $end
$scope module ALU $end
$var wire 1 * Zero_o $end
$var wire 32 + data2_i [31:0] $end
$var wire 32 , data1_i [31:0] $end
$var wire 3 - ALUCtrl_i [2:0] $end
$var reg 32 . data_o [31:0] $end
$upscope $end
$scope module ALU_Control $end
$var wire 10 / funct_i [9:0] $end
$var wire 2 0 ALUOp_i [1:0] $end
$var reg 3 1 ALUCtrl_o [2:0] $end
$upscope $end
$scope module Control $end
$var wire 1 2 ALUSrc_o $end
$var wire 1 3 Branch_o $end
$var wire 1 4 MemRead_o $end
$var wire 1 5 MemWrite_o $end
$var wire 1 6 MemtoReg_o $end
$var wire 1 7 RegWrite_o $end
$var wire 1 8 ZERO $end
$var wire 7 9 Op_i [6:0] $end
$var wire 1 : NoOp_i $end
$var wire 2 ; ALUOp_o [1:0] $end
$upscope $end
$scope module Data_Memory $end
$var wire 1 ! clk_i $end
$var wire 32 < data_o [31:0] $end
$var wire 32 = data_i [31:0] $end
$var wire 32 > addr_i [31:0] $end
$var wire 1 ? MemWrite_i $end
$var wire 1 @ MemRead_i $end
$upscope $end
$scope module EX_ALUMUX $end
$var wire 1 A select_i $end
$var wire 32 B data_o [31:0] $end
$var wire 32 C data2_i [31:0] $end
$var wire 32 D data1_i [31:0] $end
$upscope $end
$scope module EX_MEM $end
$var wire 32 E ALUres_i [31:0] $end
$var wire 1 ! clk_i $end
$var wire 1 F RegWrite_i $end
$var wire 5 G RDaddr_i [4:0] $end
$var wire 1 H MemtoReg_i $end
$var wire 1 I MemWrite_i $end
$var wire 1 J MemRead_i $end
$var wire 32 K MEMWriteData_i [31:0] $end
$var reg 32 L ALUres_o [31:0] $end
$var reg 32 M MEMWriteData_o [31:0] $end
$var reg 1 @ MemRead_o $end
$var reg 1 ? MemWrite_o $end
$var reg 1 N MemtoReg_o $end
$var reg 5 O RDaddr_o [4:0] $end
$var reg 1 P RegWrite_o $end
$upscope $end
$scope module EX_MUXA $end
$var wire 32 Q data3_i [31:0] $end
$var wire 32 R data4_i [31:0] $end
$var wire 2 S select_i [1:0] $end
$var wire 32 T data_o [31:0] $end
$var wire 32 U data2_i [31:0] $end
$var wire 32 V data1_i [31:0] $end
$upscope $end
$scope module EX_MUXB $end
$var wire 32 W data3_i [31:0] $end
$var wire 32 X data4_i [31:0] $end
$var wire 2 Y select_i [1:0] $end
$var wire 32 Z data_o [31:0] $end
$var wire 32 [ data2_i [31:0] $end
$var wire 32 \ data1_i [31:0] $end
$upscope $end
$scope module Forward_Unit $end
$var wire 5 ] MEM_Rd_i [4:0] $end
$var wire 1 P MEM_RegWrite_i $end
$var wire 1 ^ WB_RegWrite_i $end
$var wire 5 _ WB_Rd_i [4:0] $end
$var wire 5 ` EX_Rs2_i [4:0] $end
$var wire 5 a EX_Rs1_i [4:0] $end
$var reg 2 b ForwardA_o [1:0] $end
$var reg 2 c ForwardB_o [1:0] $end
$upscope $end
$scope module Hazard_Adder $end
$var wire 32 d data_o [31:0] $end
$var wire 32 e data2_i [31:0] $end
$var wire 32 f data1_i [31:0] $end
$upscope $end
$scope module Hazard_Detection $end
$var wire 5 g RS2addr_i [4:0] $end
$var wire 5 h RS1addr_i [4:0] $end
$var wire 5 i EX_Rd_i [4:0] $end
$var wire 1 J EX_MemRead_i $end
$var reg 1 : NoOp_o $end
$var reg 1 j PCWrite_o $end
$var reg 1 k Stall_o $end
$upscope $end
$scope module ID_EX $end
$var wire 2 l ALUOp_i [1:0] $end
$var wire 1 2 ALUSrc_i $end
$var wire 1 4 MemRead_i $end
$var wire 1 5 MemWrite_i $end
$var wire 1 6 MemtoReg_i $end
$var wire 1 7 RegWrite_i $end
$var wire 1 ! clk_i $end
$var wire 10 m funct_i [9:0] $end
$var wire 32 n imm_i [31:0] $end
$var wire 32 o data2_i [31:0] $end
$var wire 32 p data1_i [31:0] $end
$var wire 5 q RS2addr_i [4:0] $end
$var wire 5 r RS1addr_i [4:0] $end
$var wire 5 s RDaddr_i [4:0] $end
$var reg 2 t ALUOp_o [1:0] $end
$var reg 1 A ALUSrc_o $end
$var reg 1 J MemRead_o $end
$var reg 1 I MemWrite_o $end
$var reg 1 H MemtoReg_o $end
$var reg 5 u RDaddr_o [4:0] $end
$var reg 5 v RS1addr_o [4:0] $end
$var reg 5 w RS2addr_o [4:0] $end
$var reg 1 F RegWrite_o $end
$var reg 32 x data1_o [31:0] $end
$var reg 32 y data2_o [31:0] $end
$var reg 10 z funct_o [9:0] $end
$var reg 32 { imm_o [31:0] $end
$upscope $end
$scope module IF_ID $end
$var wire 1 ) Flush_i $end
$var wire 1 k Stall_i $end
$var wire 1 ! clk_i $end
$var wire 1 # start_i $end
$var wire 32 | pc_i [31:0] $end
$var wire 32 } instr_i [31:0] $end
$var reg 32 ~ instr_o [31:0] $end
$var reg 32 !" pc_o [31:0] $end
$upscope $end
$scope module Imm_Gen $end
$var wire 32 "" data_i [31:0] $end
$var reg 32 #" data_o [31:0] $end
$upscope $end
$scope module Instruction_Memory $end
$var wire 32 $" instr_o [31:0] $end
$var wire 32 %" addr_i [31:0] $end
$upscope $end
$scope module MEM_WB $end
$var wire 32 &" ALUres_i [31:0] $end
$var wire 32 '" MEMReadData_i [31:0] $end
$var wire 1 N MemtoReg_i $end
$var wire 5 (" RDaddr_i [4:0] $end
$var wire 1 P RegWrite_i $end
$var wire 1 ! clk_i $end
$var reg 32 )" ALUres_o [31:0] $end
$var reg 32 *" MEMReadData_o [31:0] $end
$var reg 1 +" MemtoReg_o $end
$var reg 5 ," RDaddr_o [4:0] $end
$var reg 1 ^ RegWrite_o $end
$upscope $end
$scope module PC $end
$var wire 1 j PCWrite_i $end
$var wire 1 ! clk_i $end
$var wire 1 " rst_i $end
$var wire 1 # start_i $end
$var wire 32 -" pc_i [31:0] $end
$var reg 32 ." pc_o [31:0] $end
$upscope $end
$scope module PC_Adder $end
$var wire 32 /" data1_i [31:0] $end
$var wire 32 0" data2_i [31:0] $end
$var wire 32 1" data_o [31:0] $end
$upscope $end
$scope module PC_MUX $end
$var wire 32 2" data1_i [31:0] $end
$var wire 32 3" data2_i [31:0] $end
$var wire 1 ) select_i $end
$var wire 32 4" data_o [31:0] $end
$upscope $end
$scope module Registers $end
$var wire 5 5" RDaddr_i [4:0] $end
$var wire 5 6" RS1addr_i [4:0] $end
$var wire 5 7" RS2addr_i [4:0] $end
$var wire 1 ^ RegWrite_i $end
$var wire 1 ! clk_i $end
$var wire 32 8" RS2data_o [31:0] $end
$var wire 32 9" RS1data_o [31:0] $end
$var wire 32 :" RDdata_i [31:0] $end
$upscope $end
$scope module WB_MUX $end
$var wire 32 ;" data1_i [31:0] $end
$var wire 32 <" data2_i [31:0] $end
$var wire 1 +" select_i $end
$var wire 32 =" data_o [31:0] $end
$upscope $end
$upscope $end
$upscope $end
$enddefinitions $end
#0
$dumpvars
bx ="
bx <"
bx ;"
bx :"
b0 9"
b0 8"
b0 7"
b0 6"
bx 5"
b100 4"
bx 3"
b100 2"
b100 1"
b100 0"
b0 /"
b0 ."
b100 -"
bx ,"
x+"
bx *"
bx )"
bx ("
bx '"
bx &"
b0 %"
b110000010011 $"
b0 #"
b0 ""
bx !"
b0 ~
b110000010011 }
b0 |
b0 {
b0 z
bx y
bx x
b0 w
b0 v
b0 u
b0 t
b0 s
b0 r
b0 q
b0 p
b0 o
b0 n
b0 m
b0 l
0k
1j
b0 i
b0 h
b0 g
b0 f
bx e
bx d
b0 c
b0 b
b0 a
b0 `
bx _
0^
bx ]
bx \
bx [
bx Z
b0 Y
bz X
bx W
bx V
bx U
bx T
b0 S
bz R
bx Q
0P
bx O
xN
bx M
bx L
bx K
0J
0I
0H
b0 G
0F
bx E
bx D
b0 C
bx B
0A
x@
0?
bx >
bx =
bx <
b0 ;
0:
b0 9
18
07
06
05
04
03
02
b0 1
b0 0
b0 /
bx .
b0 -
bx ,
bx +
z*
0)
b0 (
b11 '
b100000 &
b0 %
b0 $
0#
1"
1!
$end
#12
1#
0"
#25
0!
#50
b0 .
b0 E
17
12
b0 +
b0 B
08
b0 <
b0 '"
b0 D
b0 K
b0 Z
b0 ,
b0 T
b10011 9
b11000 s
b1000 -"
b1000 4"
b10000000000110100010011 }
b10000000000110100010011 $"
b0 O
b0 ]
b0 ("
0@
0N
b0 \
b0 y
b0 V
b0 x
b110000010011 ~
b110000010011 ""
b0 d
b0 3"
b0 e
b0 !"
b1000 1"
b1000 2"
b100 |
b100 %"
b100 ."
b100 /"
b1 $
1!
#75
0!
#100
b100 g
b100 7"
b100 q
b11010 s
b100 f
b100 n
b100 #"
b1100 -"
b1100 4"
b10000000000111000010011 }
b10000000000111000010011 $"
b10000000000110100010011 ~
b10000000000110100010011 ""
b1000 d
b1000 3"
b100 e
b100 !"
1F
b11000 G
b11000 i
b11000 u
1A
b0 =
b0 M
b0 >
b0 L
b0 Q
b0 W
b0 &"
b0 _
b0 ,"
b0 5"
b0 *"
b0 <"
0+"
b1100 1"
b1100 2"
b1000 |
b1000 %"
b1000 ."
b1000 /"
b10 $
1!
#125
0!
#150
b100 .
b100 E
b0 U
b0 [
b0 :"
b0 ="
b100 +
b100 B
b11100 s
b10000 -"
b10000 4"
b11111111111100000000011110010011 }
b11111111111100000000011110010011 $"
b0 )"
b0 ;"
b11000 O
b11000 ]
b11000 ("
1P
b11010 G
b11010 i
b11010 u
b100 `
b100 w
b100 C
b100 {
b10000000000111000010011 ~
b10000000000111000010011 ""
b1100 d
b1100 3"
b1000 e
b1000 !"
b10000 1"
b10000 2"
b1100 |
b1100 %"
b1100 ."
b1100 /"
b11 $
1!
#175
0!
#200
b111110 o
b111110 8"
b11111 g
b11111 7"
b1111111000 m
b11111 q
b1111 s
b11111111111111111111111111111111 f
b11111111111111111111111111111111 n
b11111111111111111111111111111111 #"
b10100 -"
b10100 4"
b11110011010000110010110011 }
b11110011010000110010110011 $"
b11111111111100000000011110010011 ~
b11111111111100000000011110010011 ""
b1011 d
b1011 3"
b1100 e
b1100 !"
b11100 G
b11100 i
b11100 u
b11010 O
b11010 ]
b11010 ("
b100 >
b100 L
b100 Q
b100 W
b100 &"
b11000 _
b11000 ,"
b11000 5"
1^
b10100 1"
b10100 2"
b10000 |
b10000 %"
b10000 ."
b10000 /"
b100 $
1!
#225
0!
#250
02
b10 ;
b10 l
b11111111111111111111111111111111 .
b11111111111111111111111111111111 E
b100 p
b100 9"
b111000 o
b111000 8"
b100 U
b100 [
b100 :"
b100 ="
b11111111111111111111111111111111 +
b11111111111111111111111111111111 B
b111110 D
b111110 K
b111110 Z
b110011 9
b11010 h
b11100 g
b11010 6"
b11100 7"
b1000 m
b11010 r
b11100 q
b11001 s
b111100 f
b111100 n
b111100 #"
b11000 -"
b11000 4"
b11111111111111010000110100010011 }
b11111111111111010000110100010011 $"
b11010 _
b11010 ,"
b11010 5"
b100 )"
b100 ;"
b11100 O
b11100 ]
b11100 ("
b1111 G
b1111 i
b1111 u
b11111 `
b11111 w
b1111111000 /
b1111111000 z
b11111111111111111111111111111111 C
b11111111111111111111111111111111 {
b111110 \
b111110 y
b11110011010000110010110011 ~
b11110011010000110010110011 ""
b1001100 d
b1001100 3"
b10000 e
b10000 !"
b11000 1"
b11000 2"
b10100 |
b10100 %"
b10100 ."
b10100 /"
b101 $
1!
#275
0!
#300
12
b0 ;
b0 l
b10000 .
b10000 E
b111110 o
b111110 8"
b10011 9
b11111 g
b11111 7"
b1111111000 m
b11111 q
b11010 s
b11111111111111111111111111111111 f
b11111111111111111111111111111111 n
b11111111111111111111111111111111 #"
b100 D
b100 K
b100 Z
b100 ,
b100 T
b100 +
b100 B
b10 -
b10 1
b1 Y
b1 c
b11100 -"
b11100 4"
b11001010110110000011 }
b11001010110110000011 $"
b11111111111111010000110100010011 ~
b11111111111111010000110100010011 ""
b10011 d
b10011 3"
b10100 e
b10100 !"
b11001 G
b11001 i
b11001 u
b11100 `
b11100 w
b11010 a
b11010 v
b1000 /
b1000 z
b111100 C
b111100 {
b111000 \
b111000 y
b100 V
b100 x
0A
b10 0
b10 t
b1111 O
b1111 ]
b1111 ("
b111110 =
b111110 M
b11111111111111111111111111111111 >
b11111111111111111111111111111111 L
b11111111111111111111111111111111 Q
b11111111111111111111111111111111 W
b11111111111111111111111111111111 &"
b11100 _
b11100 ,"
b11100 5"
b11100 1"
b11100 2"
b11000 |
b11000 %"
b11000 ."
b11000 /"
b110 $
1!
#325
0!
#350
14
16
b111110 D
b111110 K
b111110 Z
b11 .
b11 E
b11111111111111111111111111100111 p
b11111111111111111111111111100111 9"
b0 o
b0 8"
b11111111111111111111111111111111 U
b11111111111111111111111111111111 [
b11111111111111111111111111111111 :"
b11111111111111111111111111111111 ="
b0 Y
b0 c
b11111111111111111111111111111111 +
b11111111111111111111111111111111 B
b0 -
b0 1
b11 9
b11001 h
b0 g
b11001 6"
b0 7"
b10 m
b11001 r
b0 q
b11011 s
b0 f
b0 n
b0 #"
b100000 -"
b100000 4"
b1101111000000110000110011 }
b1101111000000110000110011 $"
b1111 _
b1111 ,"
b1111 5"
b11111111111111111111111111111111 )"
b11111111111111111111111111111111 ;"
b11001 O
b11001 ]
b11001 ("
b100 =
b100 M
b10000 >
b10000 L
b10000 Q
b10000 W
b10000 &"
b11010 G
b11010 i
b11010 u
b11111 `
b11111 w
b1111111000 /
b1111111000 z
b11111111111111111111111111111111 C
b11111111111111111111111111111111 {
b111110 \
b111110 y
1A
b0 0
b0 t
b11001010110110000011 ~
b11001010110110000011 ""
b11000 d
b11000 3"
b11000 e
b11000 !"
b100000 1"
b100000 2"
b11100 |
b11100 %"
b11100 ."
b11100 /"
b111 $
1!
#375
0!
#400
07
18
1:
1k
0j
02
b0 ;
b0 l
04
06
b11111111111111111111111111100101 o
b11111111111111111111111111100101 8"
b10000 .
b10000 E
b0 p
b0 9"
b110011 9
b11000 h
b11011 g
b11000 6"
b11011 7"
b0 m
b11000 r
b11011 q
b11000 s
b11011 f
b11011 n
b11011 #"
b0 +
b0 B
b0 D
b0 K
b0 Z
b10000 ,
b10000 T
b1 S
b1 b
b10000 U
b10000 [
b10000 :"
b10000 ="
b100100 -"
b100100 4"
b111111010000010001100011 }
b111111010000010001100011 $"
b1101111000000110000110011 ~
b1101111000000110000110011 ""
b110111 d
b110111 3"
b11100 e
b11100 !"
b11011 G
b11011 i
b11011 u
b0 `
b0 w
b11001 a
b11001 v
b10 /
b10 z
b0 C
b0 {
b0 \
b0 y
b11111111111111111111111111100111 V
b11111111111111111111111111100111 x
1J
1H
b11010 O
b11010 ]
b11010 ("
b111110 =
b111110 M
b11 >
b11 L
b11 Q
b11 W
b11 &"
b11001 _
b11001 ,"
b11001 5"
b10000 )"
b10000 ;"
b100100 1"
b100100 2"
b100000 |
b100000 %"
b100000 ."
b100000 /"
b1000 $
1!
#425
0!
#450
17
b10 ;
b10 l
08
0:
0k
1j
b10000 .
b10000 E
b0 ,
b0 T
b10000 +
b10000 B
b11 U
b11 [
b11 :"
b11 ="
b11101 <
b11101 '"
b10 Y
b10 c
b0 S
b0 b
b10000 D
b10000 K
b10000 Z
b11010 _
b11010 ,"
b11010 5"
b11 )"
b11 ;"
b11011 O
b11011 ]
b11011 ("
b0 =
b0 M
b10000 >
b10000 L
b10000 Q
b10000 W
b10000 &"
1@
1N
0F
b11000 G
b11000 i
b11000 u
b11011 `
b11011 w
b11000 a
b11000 v
b0 /
b0 z
b11011 C
b11011 {
b11111111111111111111111111100101 \
b11111111111111111111111111100101 y
b0 V
b0 x
0A
0J
0H
b1001 $
b1 (
1!
#475
0!
#500
12
b11101 .
b11101 E
b1 ;
b1 l
07
b11101 +
b11101 B
13
b11101 D
b11101 K
b11101 Z
b11 p
b11 9"
b11111111111111111111111111111111 o
b11111111111111111111111111111111 8"
b1100011 9
b11010 h
b1111 g
b11010 6"
b1111 7"
b11010 r
b1111 q
b1000 s
b1000 f
b1000 n
b1000 #"
b0 <
b0 '"
b1 Y
b1 c
b11101 U
b11101 [
b11101 :"
b11101 ="
b101000 -"
b101000 4"
b11111110000000000000011011100011 }
b11111110000000000000011011100011 $"
b111111010000010001100011 ~
b111111010000010001100011 ""
b101000 d
b101000 3"
b100000 e
b100000 !"
1F
b10 0
b10 t
b11000 O
b11000 ]
b11000 ("
b10000 =
b10000 M
0@
0N
0P
b11011 _
b11011 ,"
b11011 5"
b11101 *"
b11101 <"
b10000 )"
b10000 ;"
1+"
b101000 1"
b101000 2"
b100100 |
b100100 %"
b100100 ."
b100100 /"
b1010 $
1!
#525
0!
#550
1)
b11111111111111111111111111111111 D
b11111111111111111111111111111111 K
b11111111111111111111111111111111 Z
b11111111111111111111111111111011 .
b11111111111111111111111111111011 E
b0 p
b0 9"
b0 o
b0 8"
b10000 U
b10000 [
b10000 :"
b10000 ="
b0 Y
b0 c
b11 ,
b11 T
b1000 +
b1000 B
b110 -
b110 1
b0 h
b0 g
b0 6"
b0 7"
b1111111000 m
b0 r
b0 q
b1101 s
b11111111111111111111111111101100 f
b11111111111111111111111111101100 n
b11111111111111111111111111101100 #"
b10000 -"
b10000 4"
b1100000000010111000100011 }
b1100000000010111000100011 $"
b11000 _
b11000 ,"
b11000 5"
b0 *"
b0 <"
0+"
0^
b11101 =
b11101 M
b11101 >
b11101 L
b11101 Q
b11101 W
b11101 &"
1P
0F
b1000 G
b1000 i
b1000 u
b1111 `
b1111 w
b11010 a
b11010 v
b1000 C
b1000 {
b11111111111111111111111111111111 \
b11111111111111111111111111111111 y
b11 V
b11 x
1A
b1 0
b1 t
b11111110000000000000011011100011 ~
b11111110000000000000011011100011 ""
b10000 d
b10000 3"
b100100 e
b100100 !"
b101100 1"
b101100 2"
b101000 |
b101000 %"
b101000 ."
b101000 /"
b1011 $
1!
#575
0!
#600
0)
b0 ;
b0 l
02
03
18
b10100 .
b10100 E
b0 9
b0 m
b0 s
b0 f
b0 n
b0 #"
b10100 -"
b10100 4"
b11111111111111111111111111101100 +
b11111111111111111111111111101100 B
b0 D
b0 K
b0 Z
b0 ,
b0 T
b11101 U
b11101 [
b11101 :"
b11101 ="
b11110011010000110010110011 }
b11110011010000110010110011 $"
b0 ~
b0 ""
b101000 d
b101000 3"
b101000 e
b101000 !"
b1101 G
b1101 i
b1101 u
b0 `
b0 w
b0 a
b0 v
b1111111000 /
b1111111000 z
b11111111111111111111111111101100 C
b11111111111111111111111111101100 {
b0 \
b0 y
b0 V
b0 x
b1000 O
b1000 ]
b1000 ("
b11111111111111111111111111111111 =
b11111111111111111111111111111111 M
b11111111111111111111111111111011 >
b11111111111111111111111111111011 L
b11111111111111111111111111111011 Q
b11111111111111111111111111111011 W
b11111111111111111111111111111011 &"
0P
b11101 )"
b11101 ;"
1^
b10100 1"
b10100 2"
b10000 |
b10000 %"
b10000 ."
b10000 /"
b1100 $
b1 %
1!
#625
0!
#650
b10 ;
b10 l
17
02
b0 .
b0 E
08
b11 p
b11 9"
b100 o
b100 8"
b11111111111111111111111111111011 U
b11111111111111111111111111111011 [
b11111111111111111111111111111011 :"
b11111111111111111111111111111011 ="
b0 +
b0 B
b0 -
b0 1
b110011 9
b11010 h
b11100 g
b11010 6"
b11100 7"
b1000 m
b11010 r
b11100 q
b11001 s
b111100 f
b111100 n
b111100 #"
b11000 -"
b11000 4"
b11111111111111010000110100010011 }
b11111111111111010000110100010011 $"
b1000 _
b1000 ,"
b1000 5"
b11111111111111111111111111111011 )"
b11111111111111111111111111111011 ;"
0^
b1101 O
b1101 ]
b1101 ("
b0 =
b0 M
b10100 >
b10100 L
b10100 Q
b10100 W
b10100 &"
b0 G
b0 i
b0 u
b0 /
b0 z
b0 C
b0 {
0A
b0 0
b0 t
b11110011010000110010110011 ~
b11110011010000110010110011 ""
b1001100 d
b1001100 3"
b10000 e
b10000 !"
b11000 1"
b11000 2"
b10100 |
b10100 %"
b10100 ."
b10100 /"
b1101 $
1!
#675
0!
#700
12
b0 ;
b0 l
b1100 .
b1100 E
b111110 o
b111110 8"
b100 +
b100 B
b10011 9
b11111 g
b11111 7"
b1111111000 m
b11111 q
b11010 s
b11111111111111111111111111111111 f
b11111111111111111111111111111111 n
b11111111111111111111111111111111 #"
b100 D
b100 K
b100 Z
b11 ,
b11 T
b10 -
b10 1
b10100 U
b10100 [
b10100 :"
b10100 ="
b11100 -"
b11100 4"
b11001010110110000011 }
b11001010110110000011 $"
b11111111111111010000110100010011 ~
b11111111111111010000110100010011 ""
b10011 d
b10011 3"
b10100 e
b10100 !"
1F
b11001 G
b11001 i
b11001 u
b11100 `
b11100 w
b11010 a
b11010 v
b1000 /
b1000 z
b111100 C
b111100 {
b100 \
b100 y
b11 V
b11 x
b10 0
b10 t
b0 O
b0 ]
b0 ("
b0 >
b0 L
b0 Q
b0 W
b0 &"
b1101 _
b1101 ,"
b1101 5"
b10100 )"
b10100 ;"
b11100 1"
b11100 2"
b11000 |
b11000 %"
b11000 ."
b11000 /"
b1110 $
1!
#725
0!
#750
14
16
b10 .
b10 E
b10000 p
b10000 9"
b0 o
b0 8"
b0 U
b0 [
b0 :"
b0 ="
b111110 D
b111110 K
b111110 Z
b11111111111111111111111111111111 +
b11111111111111111111111111111111 B
b0 -
b0 1
b11 9
b11001 h
b0 g
b11001 6"
b0 7"
b10 m
b11001 r
b0 q
b11011 s
b0 f
b0 n
b0 #"
b100000 -"
b100000 4"
b1101111000000110000110011 }
b1101111000000110000110011 $"
b0 _
b0 ,"
b0 5"
b0 )"
b0 ;"
b11001 O
b11001 ]
b11001 ("
b100 =
b100 M
b1100 >
b1100 L
b1100 Q
b1100 W
b1100 &"
1P
b11010 G
b11010 i
b11010 u
b11111 `
b11111 w
b1111111000 /
b1111111000 z
b11111111111111111111111111111111 C
b11111111111111111111111111111111 {
b111110 \
b111110 y
1A
b0 0
b0 t
b11001010110110000011 ~
b11001010110110000011 ""
b11000 d
b11000 3"
b11000 e
b11000 !"
b100000 1"
b100000 2"
b11100 |
b11100 %"
b11100 ."
b11100 /"
b1111 $
1!
#775
0!
#800
07
18
1:
1k
0j
02
b0 ;
b0 l
04
06
b11101 o
b11101 8"
b1100 .
b1100 E
b11101 p
b11101 9"
b110011 9
b11000 h
b11011 g
b11000 6"
b11011 7"
b0 m
b11000 r
b11011 q
b11000 s
b11011 f
b11011 n
b11011 #"
b0 +
b0 B
b0 D
b0 K
b0 Z
b1100 ,
b1100 T
b1100 U
b1100 [
b1100 :"
b1100 ="
b1 S
b1 b
b100100 -"
b100100 4"
b111111010000010001100011 }
b111111010000010001100011 $"
b1101111000000110000110011 ~
b1101111000000110000110011 ""
b110111 d
b110111 3"
b11100 e
b11100 !"
b11011 G
b11011 i
b11011 u
b0 `
b0 w
b11001 a
b11001 v
b10 /
b10 z
b0 C
b0 {
b0 \
b0 y
b10000 V
b10000 x
1J
1H
b11010 O
b11010 ]
b11010 ("
b111110 =
b111110 M
b10 >
b10 L
b10 Q
b10 W
b10 &"
b11001 _
b11001 ,"
b11001 5"
b1100 )"
b1100 ;"
1^
b100100 1"
b100100 2"
b100000 |
b100000 %"
b100000 ."
b100000 /"
b10000 $
1!
#825
0!
#850
17
b10 ;
b10 l
08
0:
0k
1j
b101001 .
b101001 E
b11101 ,
b11101 T
b1100 +
b1100 B
b10 U
b10 [
b10 :"
b10 ="
b10010 <
b10010 '"
b10 Y
b10 c
b0 S
b0 b
b1100 D
b1100 K
b1100 Z
b11010 _
b11010 ,"
b11010 5"
b10 )"
b10 ;"
b11011 O
b11011 ]
b11011 ("
b0 =
b0 M
b1100 >
b1100 L
b1100 Q
b1100 W
b1100 &"
1@
1N
0F
b11000 G
b11000 i
b11000 u
b11011 `
b11011 w
b11000 a
b11000 v
b0 /
b0 z
b11011 C
b11011 {
b11101 \
b11101 y
b11101 V
b11101 x
0A
0J
0H
b10001 $
b10 (
1!
#875
0!
#900
12
b101111 .
b101111 E
b1 ;
b1 l
07
b10010 +
b10010 B
13
b10010 D
b10010 K
b10010 Z
b10 p
b10 9"
b11111111111111111111111111111111 o
b11111111111111111111111111111111 8"
b1100011 9
b11010 h
b1111 g
b11010 6"
b1111 7"
b11010 r
b1111 q
b1000 s
b1000 f
b1000 n
b1000 #"
b0 <
b0 '"
b1 Y
b1 c
b10010 U
b10010 [
b10010 :"
b10010 ="
b101000 -"
b101000 4"
b11111110000000000000011011100011 }
b11111110000000000000011011100011 $"
b111111010000010001100011 ~
b111111010000010001100011 ""
b101000 d
b101000 3"
b100000 e
b100000 !"
1F
b10 0
b10 t
b11000 O
b11000 ]
b11000 ("
b1100 =
b1100 M
b101001 >
b101001 L
b101001 Q
b101001 W
b101001 &"
0@
0N
0P
b11011 _
b11011 ,"
b11011 5"
b10010 *"
b10010 <"
b1100 )"
b1100 ;"
1+"
b101000 1"
b101000 2"
b100100 |
b100100 %"
b100100 ."
b100100 /"
b10010 $
1!
#925
0!
#950
1)
b11111111111111111111111111111111 D
b11111111111111111111111111111111 K
b11111111111111111111111111111111 Z
b11111111111111111111111111111010 .
b11111111111111111111111111111010 E
b0 p
b0 9"
b0 o
b0 8"
b101001 U
b101001 [
b101001 :"
b101001 ="
b0 Y
b0 c
b10 ,
b10 T
b1000 +
b1000 B
b110 -
b110 1
b0 h
b0 g
b0 6"
b0 7"
b1111111000 m
b0 r
b0 q
b1101 s
b11111111111111111111111111101100 f
b11111111111111111111111111101100 n
b11111111111111111111111111101100 #"
b10000 -"
b10000 4"
b1100000000010111000100011 }
b1100000000010111000100011 $"
b11000 _
b11000 ,"
b11000 5"
b0 *"
b0 <"
b101001 )"
b101001 ;"
0+"
0^
b10010 =
b10010 M
b101111 >
b101111 L
b101111 Q
b101111 W
b101111 &"
1P
0F
b1000 G
b1000 i
b1000 u
b1111 `
b1111 w
b11010 a
b11010 v
b1000 C
b1000 {
b11111111111111111111111111111111 \
b11111111111111111111111111111111 y
b10 V
b10 x
1A
b1 0
b1 t
b11111110000000000000011011100011 ~
b11111110000000000000011011100011 ""
b10000 d
b10000 3"
b100100 e
b100100 !"
b101100 1"
b101100 2"
b101000 |
b101000 %"
b101000 ."
b101000 /"
b10011 $
1!
#975
0!
#1000
0)
b0 ;
b0 l
02
03
18
b10100 .
b10100 E
b0 9
b0 m
b0 s
b0 f
b0 n
b0 #"
b10100 -"
b10100 4"
b11111111111111111111111111101100 +
b11111111111111111111111111101100 B
b0 D
b0 K
b0 Z
b0 ,
b0 T
b101111 U
b101111 [
b101111 :"
b101111 ="
b11110011010000110010110011 }
b11110011010000110010110011 $"
b0 ~
b0 ""
b101000 d
b101000 3"
b101000 e
b101000 !"
b1101 G
b1101 i
b1101 u
b0 `
b0 w
b0 a
b0 v
b1111111000 /
b1111111000 z
b11111111111111111111111111101100 C
b11111111111111111111111111101100 {
b0 \
b0 y
b0 V
b0 x
b1000 O
b1000 ]
b1000 ("
b11111111111111111111111111111111 =
b11111111111111111111111111111111 M
b11111111111111111111111111111010 >
b11111111111111111111111111111010 L
b11111111111111111111111111111010 Q
b11111111111111111111111111111010 W
b11111111111111111111111111111010 &"
0P
b101111 )"
b101111 ;"
1^
b10100 1"
b10100 2"
b10000 |
b10000 %"
b10000 ."
b10000 /"
b10100 $
b10 %
1!
#1025
0!
#1050
b10 ;
b10 l
17
02
b0 .
b0 E
08
b10 p
b10 9"
b100 o
b100 8"
b11111111111111111111111111111010 U
b11111111111111111111111111111010 [
b11111111111111111111111111111010 :"
b11111111111111111111111111111010 ="
b0 +
b0 B
b0 -
b0 1
b110011 9
b11010 h
b11100 g
b11010 6"
b11100 7"
b1000 m
b11010 r
b11100 q
b11001 s
b111100 f
b111100 n
b111100 #"
b11000 -"
b11000 4"
b11111111111111010000110100010011 }
b11111111111111010000110100010011 $"
b1000 _
b1000 ,"
b1000 5"
b11111111111111111111111111111010 )"
b11111111111111111111111111111010 ;"
0^
b1101 O
b1101 ]
b1101 ("
b0 =
b0 M
b10100 >
b10100 L
b10100 Q
b10100 W
b10100 &"
b0 G
b0 i
b0 u
b0 /
b0 z
b0 C
b0 {
0A
b0 0
b0 t
b11110011010000110010110011 ~
b11110011010000110010110011 ""
b1001100 d
b1001100 3"
b10000 e
b10000 !"
b11000 1"
b11000 2"
b10100 |
b10100 %"
b10100 ."
b10100 /"
b10101 $
1!
#1075
0!
